module gitlab.com/leonardouemura/challenge-backend-auth/ser-name

go 1.21.3

replace gitlab.com/leonardouemura/challenge-backend-auth/rpc_auth => ../rpc_auth

require (
	github.com/aviddiviner/gin-limit v0.0.0-20170918012823-43b5f79762c1
	github.com/gin-contrib/cors v1.5.0
	github.com/gin-gonic/gin v1.9.1
	github.com/joho/godotenv v1.5.1
	github.com/sirupsen/logrus v1.9.3
	gitlab.com/leonardouemura/challenge-backend-auth/rpc_auth v0.0.0-00010101000000-000000000000
	google.golang.org/grpc v1.62.0
	gorm.io/driver/postgres v1.5.6
	gorm.io/gorm v1.25.7

)

require (
	github.com/bytedance/sonic v1.10.1 // indirect
	github.com/chenzhuoyu/base64x v0.0.0-20230717121745-296ad89f973d // indirect
	github.com/chenzhuoyu/iasm v0.9.0 // indirect
	github.com/gabriel-vasile/mimetype v1.4.2 // indirect
	github.com/gin-contrib/sse v0.1.0 // indirect
	github.com/go-playground/locales v0.14.1 // indirect
	github.com/go-playground/universal-translator v0.18.1 // indirect
	github.com/go-playground/validator/v10 v10.15.5 // indirect
	github.com/goccy/go-json v0.10.2 // indirect
	github.com/golang/protobuf v1.5.3 // indirect
	github.com/jackc/pgpassfile v1.0.0 // indirect
	github.com/jackc/pgservicefile v0.0.0-20221227161230-091c0ba34f0a // indirect
	github.com/jackc/pgx/v5 v5.4.3 // indirect
	github.com/jinzhu/inflection v1.0.0 // indirect
	github.com/jinzhu/now v1.1.5 // indirect
	github.com/json-iterator/go v1.1.12 // indirect
	github.com/klauspost/cpuid/v2 v2.2.5 // indirect
	github.com/leodido/go-urn v1.2.4 // indirect
	github.com/mattn/go-isatty v0.0.19 // indirect
	github.com/modern-go/concurrent v0.0.0-20180306012644-bacd9c7ef1dd // indirect
	github.com/modern-go/reflect2 v1.0.2 // indirect
	github.com/pelletier/go-toml/v2 v2.1.0 // indirect
	github.com/twitchyliquid64/golang-asm v0.15.1 // indirect
	github.com/ugorji/go/codec v1.2.11 // indirect
	golang.org/x/arch v0.5.0 // indirect
	golang.org/x/crypto v0.18.0 // indirect
	golang.org/x/net v0.20.0 // indirect
	golang.org/x/sys v0.16.0 // indirect
	golang.org/x/text v0.14.0 // indirect
	google.golang.org/genproto/googleapis/rpc v0.0.0-20240123012728-ef4313101c80 // indirect
	google.golang.org/protobuf v1.32.0 // indirect
	gopkg.in/yaml.v3 v3.0.1 // indirect
)
